\contentsline {section}{\numberline {1}Introduccion}{1}{section.1}
\contentsline {subsection}{\numberline {1.1}aplicaciones}{2}{subsection.1.1}
\contentsline {subsection}{\numberline {1.2}videos}{2}{subsection.1.2}
\contentsline {section}{\numberline {2}Caso de estudio}{3}{section.2}
\contentsline {subsection}{\numberline {2.1}dataset}{3}{subsection.2.1}
\contentsline {subsection}{\numberline {2.2}graficos}{3}{subsection.2.2}
\contentsline {section}{\numberline {3}Experimento}{4}{section.3}
\contentsline {subsection}{\numberline {3.1}Pruebas}{5}{subsection.3.1}
\contentsline {subsection}{\numberline {3.2}Graficacion con gnuplot}{5}{subsection.3.2}
\contentsline {subsection}{\numberline {3.3}validacion}{7}{subsection.3.3}
\contentsline {section}{\numberline {4}repositorio}{7}{section.4}
\contentsline {section}{\numberline {5}Conclusiones}{7}{section.5}
